Pixel density;Occurrences
0;22
1;47
2;53
3;79
4;82
5;73
6;56
7;63
8;72
9;62
10;64
11;71
12;67
13;82
14;77
15;75
16;59
17;62
18;68
19;55
20;96
21;71
22;72
23;123
24;154
25;301
26;335
27;459
28;447
29;423
30;456
31;370
32;293
33;299
34;337
35;334
36;283
37;330
38;276
39;249
40;266
41;292
42;285
43;317
44;305
45;295
46;357
47;425
48;431
49;496
50;752
51;1245
52;2185
53;3018
54;3899
55;6297
56;10908
57;15838
58;16615
59;16065
60;17322
61;20464
62;24766
63;29984
64;35890
65;42075
66;47363
67;49660
68;51291
69;55328
70;57194
71;58428
72;58429
73;56388
74;53952
75;52813
76;52189
77;50144
78;48514
79;47296
80;46394
81;45528
82;43481
83;41595
84;39411
85;37505
86;35543
87;34277
88;31958
89;30404
90;28320
91;26521
92;24756
93;23102
94;21444
95;19322
96;17380
97;15932
98;14328
99;13352
100;11797
101;10742
102;10382
103;9555
104;8829
105;8507
106;7803
107;7445
108;6720
109;6467
110;6022
111;5731
112;5582
113;5283
114;4908
115;4846
116;4552
117;4567
118;4528
119;4386
120;4085
121;3882
122;3720
123;3547
124;3443
125;3434
126;3201
127;3166
128;3278
129;3057
130;3004
131;2941
132;2908
133;2768
134;2745
135;2833
136;2758
137;2680
138;2694
139;2587
140;2715
141;2531
142;2657
143;2666
144;2622
145;2464
146;2431
147;2137
148;2298
149;2253
150;2277
151;2379
152;2282
153;2250
154;2111
155;2061
156;2078
157;1965
158;1893
159;2010
160;1759
161;1810
162;1932
163;1840
164;1707
165;1675
166;1737
167;1588
168;1753
169;1470
170;1559
171;1454
172;1324
173;1250
174;1312
175;1301
176;1080
177;1251
178;1034
179;1088
180;906
181;876
182;953
183;794
184;809
185;738
186;743
187;709
188;669
189;612
190;513
191;477
192;463
193;421
194;419
195;397
196;298
197;310
198;216
199;187
200;174
201;194
202;142
203;167
204;99
205;164
206;109
207;110
208;83
209;62
210;68
211;54
212;28
213;30
214;21
215;45
216;10
217;13
218;20
219;4
220;16
221;16
222;4
223;0
224;9
225;4
226;0
227;0
228;0
229;0
230;0
231;0
232;0
233;0
234;0
235;0
236;0
237;0
238;0
239;0
240;0
241;0
242;0
243;0
244;0
245;151
246;0
247;0
248;0
249;0
250;0
251;0
252;0
253;0
254;0
255;4
