Pixel density;Occurrences
0;13
1;53
2;51
3;48
4;60
5;39
6;65
7;53
8;38
9;46
10;39
11;65
12;24
13;58
14;69
15;50
16;110
17;192
18;176
19;243
20;335
21;244
22;324
23;536
24;908
25;1467
26;2021
27;3294
28;4246
29;6054
30;8068
31;10124
32;12454
33;15087
34;18670
35;24459
36;31627
37;33892
38;29577
39;21597
40;16577
41;13513
42;12127
43;12339
44;10307
45;8673
46;7416
47;6934
48;5664
49;5361
50;4866
51;4429
52;4459
53;4041
54;3671
55;3954
56;3752
57;4047
58;3928
59;4448
60;4158
61;5076
62;5837
63;6069
64;6266
65;6091
66;6449
67;6376
68;6051
69;5529
70;5762
71;5634
72;5839
73;5638
74;5884
75;6246
76;6118
77;6698
78;6759
79;7292
80;7325
81;7732
82;8110
83;8713
84;8725
85;9513
86;10158
87;10786
88;11689
89;12099
90;13740
91;14667
92;16119
93;17425
94;19999
95;20931
96;22807
97;24213
98;25637
99;27447
100;28582
101;30276
102;30861
103;31636
104;32282
105;32834
106;32458
107;33274
108;32569
109;32208
110;31653
111;31236
112;29831
113;29138
114;27783
115;27059
116;25891
117;25603
118;23991
119;23550
120;22932
121;21937
122;21200
123;20144
124;19509
125;18732
126;17679
127;16910
128;16982
129;15404
130;15127
131;14498
132;13547
133;12282
134;11588
135;11490
136;10988
137;10538
138;9565
139;9382
140;8850
141;7739
142;7775
143;7481
144;7008
145;6836
146;6480
147;6207
148;5786
149;5499
150;5054
151;5087
152;4807
153;4674
154;4616
155;4277
156;4007
157;3744
158;3748
159;3621
160;3610
161;3294
162;3505
163;3317
164;3173
165;2819
166;2754
167;2746
168;2610
169;2425
170;2374
171;2317
172;2057
173;1735
174;1909
175;1617
176;1386
177;1553
178;1262
179;1246
180;911
181;790
182;932
183;736
184;600
185;532
186;460
187;377
188;335
189;288
190;229
191;242
192;122
193;174
194;96
195;65
196;96
197;71
198;65
199;36
200;55
201;29
202;13
203;6
204;10
205;21
206;0
207;6
208;4
209;11
210;0
211;9
212;5
213;10
214;4
215;0
216;0
217;0
218;0
219;0
220;0
221;0
222;0
223;0
224;0
225;0
226;0
227;0
228;29
229;2
230;5
231;7
232;0
233;0
234;8
235;0
236;15
237;0
238;0
239;314
240;39
241;37
242;54
243;58
244;43
245;1025
246;0
247;8
248;0
249;30
250;8
251;26
252;62
253;0
254;0
255;17
